{
    "apiUrl": "https://rickandmortyapi.com/api/character",
    "author": {
      "name": "Vito Verrastro",
      "link": "https://www.linkedin.com/in/vito-verrastro/"
    },
    "menus": [
      {
        "type": "main",
        "items": [
          {
            "name": "Docs",
            "link": "https://gitlab.com/vverrastro/rick-and-morty-react-js/-/blob/master/README.md"
          },
          {
            "name": "License",
            "link": "https://gitlab.com/vverrastro/rick-and-morty-react-js/-/blob/master/LICENSE"
          }
        ]
      }
    ]
}